<?xml version="1.0"?>
<svg xmlns="http://www.w3.org/2000/svg" id="Layer_1" data-name="Layer 1" viewBox="0 0 566.93 167.56">
  <defs>
    <style>.cls-1{fill:#009ec6;}.cls-2{fill:#00798d;}</style>
  </defs>
  <title>logo</title>
  <polygon class="cls-1" points="0 41.84 17.53 31.72 17.53 115.36 89.91 157.15 72.41 167.26 0.02 125.46 0 41.84"/>
  <path class="cls-1" d="M212.92,346.69a8.31,8.31,0,1,1-8.3,8.3A8.26,8.26,0,0,1,212.92,346.69Z" transform="translate(-21.84 -301.11)"/>
  <rect class="cls-1" x="184.77" y="65.51" width="12.62" height="49.84"/>
  <path class="cls-1" d="M274.65,384.17v32.28H262V387.33c0-7.15-4.42-10.2-9.89-10.2-6.52,0-9.88,6.41-9.88,6.41v32.91H229.64V366.61h11.78v7.26a17.21,17.21,0,0,1,14.93-8.52C266,365.35,274.65,372.19,274.65,384.17Z" transform="translate(-21.84 -301.11)"/>
  <path class="cls-1" d="M280.53,366.61h6.78v-5c0-13.88,9.78-18.72,17.88-18.72a21.83,21.83,0,0,1,11,2.63l-4.73,10.62a8.73,8.73,0,0,0-5.05-1.47c-2.42,0-6.52,1.37-6.52,7.57v4.33h12.2V378h-12.2v38.48H287.31V378h-6.78Z" transform="translate(-21.84 -301.11)"/>
  <path class="cls-1" d="M367.54,391.53a26.6,26.6,0,0,1-53.2,0c0-14.72,11.77-26.18,26.6-26.18S367.54,376.81,367.54,391.53Zm-12.83,0c0-7.78-5.25-14.4-13.77-14.4s-13.78,6.62-13.78,14.4,5.26,14.41,13.78,14.41S354.71,399.31,354.71,391.53Z" transform="translate(-21.84 -301.11)"/>
  <path class="cls-2" d="M386.36,366.61v6.52a18.07,18.07,0,0,1,15-7.78c12.93,0,24.29,10.83,24.29,26.18s-11.36,26.19-24.29,26.19a17.76,17.76,0,0,1-14.09-6.42v26.24H374.69V366.61Zm.95,32.39a13.8,13.8,0,0,0,11.88,6.94c8.52,0,13.67-6.21,13.67-14.41s-5.15-14.4-13.67-14.4a13.8,13.8,0,0,0-11.88,6.94Z" transform="translate(-21.84 -301.11)"/>
  <path class="cls-2" d="M480.47,366.61v49.84H468.8v-6.51s-4.31,7.78-15,7.78c-12.93,0-24.29-10.84-24.29-26.19s11.36-26.18,24.29-26.18a17.87,17.87,0,0,1,15,7.78v-6.52Zm-12.62,17.46s-3.68-6.94-11.77-6.94c-8.52,0-13.78,6.2-13.78,14.4s5.26,14.41,13.78,14.41c8.09,0,11.77-6.94,11.77-6.94Z" transform="translate(-21.84 -301.11)"/>
  <path class="cls-2" d="M526.73,399.84l8.31,8.41a27,27,0,0,1-20.61,9.47c-14.93,0-26.81-11.57-26.81-26.19s11.88-26.18,26.81-26.18a26.71,26.71,0,0,1,20.4,9.25l-8.73,7.79a15.49,15.49,0,0,0-11.67-5.26c-8.52,0-14,6.62-14,14.4s5.46,14.41,14,14.41A14.7,14.7,0,0,0,526.73,399.84Z" transform="translate(-21.84 -301.11)"/>
  <path class="cls-2" d="M553.13,386.28,571,366.61h16.3l-21.87,23.56,23.34,26.28H572.16l-19-21.76v21.76H540.51V343.16h12.62Z" transform="translate(-21.84 -301.11)"/>
  <polygon class="cls-2" points="72.54 0 53.93 10.74 126.36 52.56 126.39 136.13 144.95 125.42 144.95 41.83 72.54 0"/>
  <polygon class="cls-2" points="18.63 31.42 0.02 42.17 72.44 83.98 72.47 167.56 91.04 156.84 91.04 73.25 18.63 31.42"/>
  <polygon class="cls-2" points="45.59 16.67 26.98 27.41 99.4 69.22 99.43 152.8 118 142.08 118 58.49 45.59 16.67"/>
</svg>
